%YAML 1.1
%TAG !u! tag:unity3d.com,2011:
--- !u!114 &11400000
MonoBehaviour:
  m_ObjectHideFlags: 0
  m_PrefabParentObject: {fileID: 0}
  m_PrefabInternal: {fileID: 0}
  m_GameObject: {fileID: 0}
  m_Enabled: 1
  m_EditorHideFlags: 0
  m_Script: {fileID: 11500000, guid: c10c0be6d28fe4d539c4a39822fe301c, type: 3}
  m_Name: "\u30DE\u30C3\u30B7\u30E5\u30E1\u30EB\u30C4_15"
  m_EditorClassIdentifier: 
  m_ApiVersion: 3
  m_Sprite: {fileID: 21300030, guid: 1641febea335bfe4189f2ac6d52299c3, type: 3}
  m_SharedMesh: {fileID: 43451546222198738}
  m_SharedMaterials:
  - {fileID: 21749527436683892}
  pivotPoint: {x: 0, y: 0}
  texVertices: []
  edges: []
  holes: []
  indices: 
  bindPoses: []
--- !u!21 &21749527436683892
Material:
  serializedVersion: 6
  m_ObjectHideFlags: 1
  m_PrefabParentObject: {fileID: 0}
  m_PrefabInternal: {fileID: 0}
  m_Name: "\u30DE\u30C3\u30B7\u30E5\u30E1\u30EB\u30C4_15_0"
  m_Shader: {fileID: 10753, guid: 0000000000000000f000000000000000, type: 0}
  m_ShaderKeywords: 
  m_LightmapFlags: 4
  m_EnableInstancingVariants: 0
  m_DoubleSidedGI: 0
  m_CustomRenderQueue: -1
  stringTagMap: {}
  disabledShaderPasses: []
  m_SavedProperties:
    serializedVersion: 3
    m_TexEnvs:
    - _AlphaTex:
        m_Texture: {fileID: 0}
        m_Scale: {x: 1, y: 1}
        m_Offset: {x: 0, y: 0}
    - _MainTex:
        m_Texture: {fileID: 2800000, guid: 1641febea335bfe4189f2ac6d52299c3, type: 3}
        m_Scale: {x: 1, y: 1}
        m_Offset: {x: 0, y: 0}
    m_Floats:
    - PixelSnap: 0
    - _EnableExternalAlpha: 0
    m_Colors:
    - _Color: {r: 1, g: 1, b: 1, a: 1}
    - _Flip: {r: 1, g: 1, b: 1, a: 1}
    - _RendererColor: {r: 1, g: 1, b: 1, a: 1}
--- !u!43 &43451546222198738
Mesh:
  m_ObjectHideFlags: 1
  m_PrefabParentObject: {fileID: 0}
  m_PrefabInternal: {fileID: 0}
  m_Name: "\u30DE\u30C3\u30B7\u30E5\u30E1\u30EB\u30C4_15"
  serializedVersion: 8
  m_SubMeshes:
  - serializedVersion: 2
    firstByte: 0
    indexCount: 18
    topology: 0
    firstVertex: 0
    vertexCount: 8
    localAABB:
      m_Center: {x: -0.0051123053, y: 0, z: 0}
      m_Extent: {x: 0.10511231, y: 0.8, z: 0}
  m_Shapes:
    vertices: []
    shapes: []
    channels: []
    fullWeights: []
  m_BindPose:
  - e00: -0.050352328
    e01: -0.99873173
    e02: 0
    e03: 0.33805636
    e10: 0.99873173
    e11: -0.050352328
    e12: 0
    e13: -0.019027906
    e20: 0
    e21: 0
    e22: 1
    e23: 0
    e30: 0
    e31: 0
    e32: 0
    e33: 1
  - e00: -0.050352328
    e01: -0.99873173
    e02: 0
    e03: -0.2719433
    e10: 0.99873173
    e11: -0.050352328
    e12: 0
    e13: -0.019027906
    e20: 0
    e21: 0
    e22: 1
    e23: 0
    e30: 0
    e31: 0
    e32: 0
    e33: 1
  m_BoneNameHashes: 
  m_RootBoneNameHash: 0
  m_MeshCompression: 0
  m_IsReadable: 1
  m_KeepVertices: 1
  m_KeepIndices: 1
  m_IndexBuffer: 040007000600060000000100020007000500020005000300060001000400070004000500
  m_Skin:
  - weight[0]: 1
    weight[1]: 0
    weight[2]: 0
    weight[3]: 0
    boneIndex[0]: 0
    boneIndex[1]: 0
    boneIndex[2]: 0
    boneIndex[3]: 0
  - weight[0]: 1
    weight[1]: 0
    weight[2]: 0
    weight[3]: 0
    boneIndex[0]: 0
    boneIndex[1]: 0
    boneIndex[2]: 0
    boneIndex[3]: 0
  - weight[0]: 1
    weight[1]: 0
    weight[2]: 0
    weight[3]: 0
    boneIndex[0]: 1
    boneIndex[1]: 0
    boneIndex[2]: 0
    boneIndex[3]: 0
  - weight[0]: 1
    weight[1]: 0
    weight[2]: 0
    weight[3]: 0
    boneIndex[0]: 1
    boneIndex[1]: 0
    boneIndex[2]: 0
    boneIndex[3]: 0
  - weight[0]: 0.94976276
    weight[1]: 0.050237224
    weight[2]: 0
    weight[3]: 0
    boneIndex[0]: 0
    boneIndex[1]: 1
    boneIndex[2]: 0
    boneIndex[3]: 0
  - weight[0]: 0.7729939
    weight[1]: 0.22700612
    weight[2]: 0
    weight[3]: 0
    boneIndex[0]: 1
    boneIndex[1]: 0
    boneIndex[2]: 0
    boneIndex[3]: 0
  - weight[0]: 0.9690231
    weight[1]: 0.03097683
    weight[2]: 0
    weight[3]: 0
    boneIndex[0]: 0
    boneIndex[1]: 1
    boneIndex[2]: 0
    boneIndex[3]: 0
  - weight[0]: 0.5918749
    weight[1]: 0.4081251
    weight[2]: 0
    weight[3]: 0
    boneIndex[0]: 1
    boneIndex[1]: 0
    boneIndex[2]: 0
    boneIndex[3]: 0
  m_VertexData:
    m_CurrentChannels: 11
    m_VertexCount: 8
    m_Channels:
    - stream: 0
      offset: 0
      format: 0
      dimension: 3
    - stream: 0
      offset: 12
      format: 0
      dimension: 3
    - stream: 0
      offset: 0
      format: 0
      dimension: 0
    - stream: 1
      offset: 0
      format: 0
      dimension: 2
    - stream: 0
      offset: 0
      format: 0
      dimension: 0
    - stream: 0
      offset: 0
      format: 0
      dimension: 0
    - stream: 0
      offset: 0
      format: 0
      dimension: 0
    - stream: 0
      offset: 0
      format: 0
      dimension: 0
    m_DataSize: 256
    _typelessdata: cdccccbdcdcc4c3f000000000000000000000000000080bfcdcccc3dcdcc4c3f000000000000000000000000000080bfcdccccbdcdcc4cbf000000000000000000000000000080bfcdcccc3dcdcc4cbf000000000000000000000000000080bf9a19c63d29645abe000000000000000000000000000080bf9a19c63dcdb698be000000000000000000000000000080bf146ed4bde19636be000000000000000000000000000080bf71bde1bd00a299be000000000000000000000000000080bf0080683f0000dd3e00006b3f0000dd3e0080683f0000b53e00006b3f0000b53e88f56a3f0eabc33e88f56a3f138bc13e1474683fd18ac43e485f683f977fc13e
  m_CompressedMesh:
    m_Vertices:
      m_NumItems: 0
      m_Range: 0
      m_Start: 0
      m_Data: 
      m_BitSize: 0
    m_UV:
      m_NumItems: 0
      m_Range: 0
      m_Start: 0
      m_Data: 
      m_BitSize: 0
    m_Normals:
      m_NumItems: 0
      m_Range: 0
      m_Start: 0
      m_Data: 
      m_BitSize: 0
    m_Tangents:
      m_NumItems: 0
      m_Range: 0
      m_Start: 0
      m_Data: 
      m_BitSize: 0
    m_Weights:
      m_NumItems: 0
      m_Data: 
      m_BitSize: 0
    m_NormalSigns:
      m_NumItems: 0
      m_Data: 
      m_BitSize: 0
    m_TangentSigns:
      m_NumItems: 0
      m_Data: 
      m_BitSize: 0
    m_FloatColors:
      m_NumItems: 0
      m_Range: 0
      m_Start: 0
      m_Data: 
      m_BitSize: 0
    m_BoneIndices:
      m_NumItems: 0
      m_Data: 
      m_BitSize: 0
    m_Triangles:
      m_NumItems: 0
      m_Data: 
      m_BitSize: 0
    m_UVInfo: 0
  m_LocalAABB:
    m_Center: {x: -0.0051123053, y: 0, z: 0}
    m_Extent: {x: 0.10511231, y: 0.8, z: 0}
  m_MeshUsageFlags: 0
  m_BakedConvexCollisionMesh: 
  m_BakedTriangleCollisionMesh: 
  m_MeshOptimized: 0
--- !u!114 &114361775152906772
MonoBehaviour:
  m_ObjectHideFlags: 1
  m_PrefabParentObject: {fileID: 0}
  m_PrefabInternal: {fileID: 0}
  m_GameObject: {fileID: 0}
  m_Enabled: 1
  m_EditorHideFlags: 0
  m_Script: {fileID: 11500000, guid: 9e715ea371f114f4a8d2584ad476634d, type: 3}
  m_Name: "\u30DE\u30C3\u30B7\u30E5\u30E1\u30EB\u30C4_15_Data"
  m_EditorClassIdentifier: 
  m_PivotPoint: {x: 1870, y: 804}
  m_Vertices:
  - {x: 1860, y: 884}
  - {x: 1880, y: 884}
  - {x: 1860, y: 724}
  - {x: 1880, y: 724}
  - {x: 1879.6729, y: 782.6727}
  - {x: 1879.6729, y: 774.17303}
  - {x: 1859.6274, y: 786.169}
  - {x: 1858.9775, y: 773.9936}
  m_BoneWeights:
  - weight0: 1
    weight1: 0
    weight2: 0
    weight3: 0
    boneIndex0: 0
    boneIndex1: -1
    boneIndex2: -1
    boneIndex3: -1
  - weight0: 1
    weight1: 0
    weight2: 0
    weight3: 0
    boneIndex0: 0
    boneIndex1: -1
    boneIndex2: -1
    boneIndex3: -1
  - weight0: 1
    weight1: 0
    weight2: 0
    weight3: 0
    boneIndex0: 1
    boneIndex1: -1
    boneIndex2: -1
    boneIndex3: -1
  - weight0: 1
    weight1: 0
    weight2: 0
    weight3: 0
    boneIndex0: 1
    boneIndex1: -1
    boneIndex2: -1
    boneIndex3: -1
  - weight0: 0.94976276
    weight1: 0.050237224
    weight2: 0
    weight3: 0
    boneIndex0: 0
    boneIndex1: 1
    boneIndex2: -1
    boneIndex3: -1
  - weight0: 0.7729939
    weight1: 0.22700612
    weight2: 0
    weight3: 0
    boneIndex0: 1
    boneIndex1: 0
    boneIndex2: -1
    boneIndex3: -1
  - weight0: 0.9690231
    weight1: 0.03097683
    weight2: 0
    weight3: 0
    boneIndex0: 0
    boneIndex1: 1
    boneIndex2: -1
    boneIndex3: -1
  - weight0: 0.5918749
    weight1: 0.4081251
    weight2: 0
    weight3: 0
    boneIndex0: 1
    boneIndex1: 0
    boneIndex2: -1
    boneIndex3: -1
  m_Edges:
  - index1: 0
    index2: 1
  - index1: 2
    index2: 3
  - index1: 1
    index2: 4
  - index1: 3
    index2: 5
  - index1: 4
    index2: 5
  - index1: 0
    index2: 6
  - index1: 2
    index2: 7
  - index1: 6
    index2: 7
  m_Holes: []
  m_Indices: 040000000700000006000000060000000000000001000000020000000700000005000000020000000500000003000000060000000100000004000000070000000400000005000000
  m_BindPoses:
  - bindPose:
      e00: -0.050352328
      e01: -0.99873173
      e02: 0
      e03: 0.33805636
      e10: 0.99873173
      e11: -0.050352328
      e12: 0
      e13: -0.019027906
      e20: 0
      e21: 0
      e22: 1
      e23: 0
      e30: 0
      e31: 0
      e32: 0
      e33: 1
    boneLength: 0.6099983
    path: "\u8EAB\u4F53bone_2/\u8EAB\u4F53bone_3/\u8EAB\u4F53bone_4/\u982D\u90E8bone_1/\u982D\u5DE6\u30DE\u30B0\u30DEbone_1"
    name: "\u982D\u5DE6\u30DE\u30B0\u30DEbone_1"
    color: {r: 1, g: 0, b: 0, a: 1}
    zOrder: 0
  - bindPose:
      e00: -0.050352328
      e01: -0.99873173
      e02: 0
      e03: -0.2719433
      e10: 0.99873173
      e11: -0.050352328
      e12: 0
      e13: -0.019027906
      e20: 0
      e21: 0
      e22: 1
      e23: 0
      e30: 0
      e31: 0
      e32: 0
      e33: 1
    boneLength: 0.52
    path: "\u8EAB\u4F53bone_2/\u8EAB\u4F53bone_3/\u8EAB\u4F53bone_4/\u982D\u90E8bone_1/\u982D\u5DE6\u30DE\u30B0\u30DEbone_1/\u982D\u5DE6\u30DE\u30B0\u30DEbone_2"
    name: "\u982D\u5DE6\u30DE\u30B0\u30DEbone_2"
    color: {r: 1, g: 0.75, b: 0, a: 1}
    zOrder: 0
  m_Blendshapes: []
