%YAML 1.1
%TAG !u! tag:unity3d.com,2011:
--- !u!114 &11400000
MonoBehaviour:
  m_ObjectHideFlags: 0
  m_PrefabParentObject: {fileID: 0}
  m_PrefabInternal: {fileID: 0}
  m_GameObject: {fileID: 0}
  m_Enabled: 1
  m_EditorHideFlags: 0
  m_Script: {fileID: 11500000, guid: c10c0be6d28fe4d539c4a39822fe301c, type: 3}
  m_Name: "\u30DE\u30C3\u30B7\u30E5\u30E1\u30EB\u30C4_10"
  m_EditorClassIdentifier: 
  m_ApiVersion: 3
  m_Sprite: {fileID: 21300020, guid: 1641febea335bfe4189f2ac6d52299c3, type: 3}
  m_SharedMesh: {fileID: 43362947598434090}
  m_SharedMaterials:
  - {fileID: 21932142784315578}
  pivotPoint: {x: 0, y: 0}
  texVertices: []
  edges: []
  holes: []
  indices: 
  bindPoses: []
--- !u!21 &21932142784315578
Material:
  serializedVersion: 6
  m_ObjectHideFlags: 1
  m_PrefabParentObject: {fileID: 0}
  m_PrefabInternal: {fileID: 0}
  m_Name: "\u30DE\u30C3\u30B7\u30E5\u30E1\u30EB\u30C4_10_0"
  m_Shader: {fileID: 10753, guid: 0000000000000000f000000000000000, type: 0}
  m_ShaderKeywords: 
  m_LightmapFlags: 4
  m_EnableInstancingVariants: 0
  m_DoubleSidedGI: 0
  m_CustomRenderQueue: -1
  stringTagMap: {}
  disabledShaderPasses: []
  m_SavedProperties:
    serializedVersion: 3
    m_TexEnvs:
    - _AlphaTex:
        m_Texture: {fileID: 0}
        m_Scale: {x: 1, y: 1}
        m_Offset: {x: 0, y: 0}
    - _MainTex:
        m_Texture: {fileID: 2800000, guid: 1641febea335bfe4189f2ac6d52299c3, type: 3}
        m_Scale: {x: 1, y: 1}
        m_Offset: {x: 0, y: 0}
    m_Floats:
    - PixelSnap: 0
    - _EnableExternalAlpha: 0
    m_Colors:
    - _Color: {r: 1, g: 1, b: 1, a: 1}
    - _Flip: {r: 1, g: 1, b: 1, a: 1}
    - _RendererColor: {r: 1, g: 1, b: 1, a: 1}
--- !u!43 &43362947598434090
Mesh:
  m_ObjectHideFlags: 1
  m_PrefabParentObject: {fileID: 0}
  m_PrefabInternal: {fileID: 0}
  m_Name: "\u30DE\u30C3\u30B7\u30E5\u30E1\u30EB\u30C4_10"
  serializedVersion: 8
  m_SubMeshes:
  - serializedVersion: 2
    firstByte: 0
    indexCount: 24
    topology: 0
    firstVertex: 0
    vertexCount: 10
    localAABB:
      m_Center: {x: -0.007207036, y: 0, z: 0}
      m_Extent: {x: 0.31720826, y: 0.665, z: 0}
  m_Shapes:
    vertices: []
    shapes: []
    channels: []
    fullWeights: []
  m_BindPose:
  - e00: -0.0037361323
    e01: -0.9999932
    e02: 0
    e03: 0.23640117
    e10: 0.9999932
    e11: -0.0037361323
    e12: 0
    e13: -0.07753122
    e20: 0
    e21: 0
    e22: 1
    e23: 0
    e30: 0
    e31: 0
    e32: 0
    e33: 1
  - e00: -0.0037361323
    e01: -0.9999932
    e02: 0
    e03: -0.25359932
    e10: 0.9999932
    e11: -0.0037361323
    e12: 0
    e13: -0.07753122
    e20: 0
    e21: 0
    e22: 1
    e23: 0
    e30: 0
    e31: 0
    e32: 0
    e33: 1
  m_BoneNameHashes: 
  m_RootBoneNameHash: 0
  m_MeshCompression: 0
  m_IsReadable: 1
  m_KeepVertices: 1
  m_KeepIndices: 1
  m_IndexBuffer: 070005000900060009000800060008000400050001000300070009000600020006000000060004000000010005000700
  m_Skin:
  - weight[0]: 1
    weight[1]: 0
    weight[2]: 0
    weight[3]: 0
    boneIndex[0]: 0
    boneIndex[1]: 0
    boneIndex[2]: 0
    boneIndex[3]: 0
  - weight[0]: 1
    weight[1]: 0
    weight[2]: 0
    weight[3]: 0
    boneIndex[0]: 1
    boneIndex[1]: 0
    boneIndex[2]: 0
    boneIndex[3]: 0
  - weight[0]: 1
    weight[1]: 0
    weight[2]: 0
    weight[3]: 0
    boneIndex[0]: 0
    boneIndex[1]: 0
    boneIndex[2]: 0
    boneIndex[3]: 0
  - weight[0]: 1
    weight[1]: 0
    weight[2]: 0
    weight[3]: 0
    boneIndex[0]: 1
    boneIndex[1]: 0
    boneIndex[2]: 0
    boneIndex[3]: 0
  - weight[0]: 1
    weight[1]: 0
    weight[2]: 0
    weight[3]: 0
    boneIndex[0]: 0
    boneIndex[1]: 0
    boneIndex[2]: 0
    boneIndex[3]: 0
  - weight[0]: 0.95404214
    weight[1]: 0.04595781
    weight[2]: 0
    weight[3]: 0
    boneIndex[0]: 1
    boneIndex[1]: 0
    boneIndex[2]: 0
    boneIndex[3]: 0
  - weight[0]: 1
    weight[1]: 0
    weight[2]: 0
    weight[3]: 0
    boneIndex[0]: 0
    boneIndex[1]: 0
    boneIndex[2]: 0
    boneIndex[3]: 0
  - weight[0]: 1
    weight[1]: 0
    weight[2]: 0
    weight[3]: 0
    boneIndex[0]: 1
    boneIndex[1]: 0
    boneIndex[2]: 0
    boneIndex[3]: 0
  - weight[0]: 1
    weight[1]: 0
    weight[2]: 0
    weight[3]: 0
    boneIndex[0]: 0
    boneIndex[1]: 0
    boneIndex[2]: 0
    boneIndex[3]: 0
  - weight[0]: 1
    weight[1]: 0
    weight[2]: 0
    weight[3]: 0
    boneIndex[0]: 1
    boneIndex[1]: 0
    boneIndex[2]: 0
    boneIndex[3]: 0
  m_VertexData:
    m_CurrentChannels: 11
    m_VertexCount: 10
    m_Channels:
    - stream: 0
      offset: 0
      format: 0
      dimension: 3
    - stream: 0
      offset: 12
      format: 0
      dimension: 3
    - stream: 0
      offset: 0
      format: 0
      dimension: 0
    - stream: 1
      offset: 0
      format: 0
      dimension: 2
    - stream: 0
      offset: 0
      format: 0
      dimension: 0
    - stream: 0
      offset: 0
      format: 0
      dimension: 0
    - stream: 0
      offset: 0
      format: 0
      dimension: 0
    - stream: 0
      offset: 0
      format: 0
      dimension: 0
    m_DataSize: 320
    _typelessdata: 0ad7233d713d2a3f000000000000000000000000000080bf9a99993e713d2abf000000000000000000000000000080bf9a99993e713d2a3f000000000000000000000000000080bf000080be713d2abf000000000000000000000000000080bf9a9999be3333f33e000000000000000000000000000080bf9a9999bea470fdbe000000000000000000000000000080bf7bb89e3e5c4f02be000000000000000000000000000080bf33539b3eecfb8cbe000000000000000000000000000080bfc319a6beb87e9cbd000000000000000000000000000080bf3dd6a3be52c693be000000000000000000000000000080bf0060263f0040ed3e00a0293f0000cc3e00a0293f0040ed3e00c0223f0000cc3e0020223f0080e83e0020223f0040d03e01c0293f9071d93ec8aa293fb3bdd53edfd1213ff4b6da3e05e0213fd168d53e
  m_CompressedMesh:
    m_Vertices:
      m_NumItems: 0
      m_Range: 0
      m_Start: 0
      m_Data: 
      m_BitSize: 0
    m_UV:
      m_NumItems: 0
      m_Range: 0
      m_Start: 0
      m_Data: 
      m_BitSize: 0
    m_Normals:
      m_NumItems: 0
      m_Range: 0
      m_Start: 0
      m_Data: 
      m_BitSize: 0
    m_Tangents:
      m_NumItems: 0
      m_Range: 0
      m_Start: 0
      m_Data: 
      m_BitSize: 0
    m_Weights:
      m_NumItems: 0
      m_Data: 
      m_BitSize: 0
    m_NormalSigns:
      m_NumItems: 0
      m_Data: 
      m_BitSize: 0
    m_TangentSigns:
      m_NumItems: 0
      m_Data: 
      m_BitSize: 0
    m_FloatColors:
      m_NumItems: 0
      m_Range: 0
      m_Start: 0
      m_Data: 
      m_BitSize: 0
    m_BoneIndices:
      m_NumItems: 0
      m_Data: 
      m_BitSize: 0
    m_Triangles:
      m_NumItems: 0
      m_Data: 
      m_BitSize: 0
    m_UVInfo: 0
  m_LocalAABB:
    m_Center: {x: -0.007207036, y: 0, z: 0}
    m_Extent: {x: 0.31720826, y: 0.665, z: 0}
  m_MeshUsageFlags: 0
  m_BakedConvexCollisionMesh: 
  m_BakedTriangleCollisionMesh: 
  m_MeshOptimized: 0
--- !u!114 &114871293988117310
MonoBehaviour:
  m_ObjectHideFlags: 1
  m_PrefabParentObject: {fileID: 0}
  m_PrefabInternal: {fileID: 0}
  m_GameObject: {fileID: 0}
  m_Enabled: 1
  m_EditorHideFlags: 0
  m_Script: {fileID: 11500000, guid: 9e715ea371f114f4a8d2584ad476634d, type: 3}
  m_Name: "\u30DE\u30C3\u30B7\u30E5\u30E1\u30EB\u30C4_10_Data"
  m_EditorClassIdentifier: 
  m_PivotPoint: {x: 1327, y: 882.5}
  m_Vertices:
  - {x: 1331, y: 949}
  - {x: 1357, y: 816}
  - {x: 1357, y: 949}
  - {x: 1302, y: 816}
  - {x: 1297, y: 930}
  - {x: 1297, y: 833}
  - {x: 1358.0001, y: 869.7744}
  - {x: 1357.3369, y: 854.96405}
  - {x: 1294.5585, y: 874.85864}
  - {x: 1295.0006, y: 853.63776}
  m_BoneWeights:
  - weight0: 1
    weight1: 0
    weight2: 0
    weight3: 0
    boneIndex0: 0
    boneIndex1: -1
    boneIndex2: -1
    boneIndex3: -1
  - weight0: 1
    weight1: 0
    weight2: 0
    weight3: 0
    boneIndex0: 1
    boneIndex1: -1
    boneIndex2: -1
    boneIndex3: -1
  - weight0: 1
    weight1: 0
    weight2: 0
    weight3: 0
    boneIndex0: 0
    boneIndex1: -1
    boneIndex2: -1
    boneIndex3: -1
  - weight0: 1
    weight1: 0
    weight2: 0
    weight3: 0
    boneIndex0: 1
    boneIndex1: -1
    boneIndex2: -1
    boneIndex3: -1
  - weight0: 1
    weight1: 0
    weight2: 0
    weight3: 0
    boneIndex0: 0
    boneIndex1: -1
    boneIndex2: -1
    boneIndex3: -1
  - weight0: 0.95404214
    weight1: 0.04595781
    weight2: 0
    weight3: 0
    boneIndex0: 1
    boneIndex1: 0
    boneIndex2: -1
    boneIndex3: -1
  - weight0: 1
    weight1: 0
    weight2: 0
    weight3: 0
    boneIndex0: 0
    boneIndex1: -1
    boneIndex2: -1
    boneIndex3: -1
  - weight0: 1
    weight1: 0
    weight2: 0
    weight3: 0
    boneIndex0: 1
    boneIndex1: -1
    boneIndex2: -1
    boneIndex3: -1
  - weight0: 1
    weight1: 0
    weight2: 0
    weight3: 0
    boneIndex0: 0
    boneIndex1: -1
    boneIndex2: -1
    boneIndex3: -1
  - weight0: 0
    weight1: 1
    weight2: 0
    weight3: 0
    boneIndex0: 0
    boneIndex1: 1
    boneIndex2: -1
    boneIndex3: -1
  m_Edges:
  - index1: 0
    index2: 4
  - index1: 5
    index2: 3
  - index1: 2
    index2: 0
  - index1: 1
    index2: 3
  - index1: 2
    index2: 6
  - index1: 1
    index2: 7
  - index1: 6
    index2: 7
  - index1: 4
    index2: 8
  - index1: 5
    index2: 9
  - index1: 8
    index2: 9
  m_Holes: []
  m_Indices: 070000000500000009000000060000000900000008000000060000000800000004000000050000000100000003000000070000000900000006000000020000000600000000000000060000000400000000000000010000000500000007000000
  m_BindPoses:
  - bindPose:
      e00: -0.0037361323
      e01: -0.9999932
      e02: 0
      e03: 0.23640117
      e10: 0.9999932
      e11: -0.0037361323
      e12: 0
      e13: -0.07753122
      e20: 0
      e21: 0
      e22: 1
      e23: 0
      e30: 0
      e31: 0
      e32: 0
      e33: 1
    boneLength: 0.49000028
    path: "\u8EAB\u4F53bone_2/\u8EAB\u4F53bone_3/\u8EAB\u4F53bone_4/\u5DE6\u624Bbone_1/\u5DE6\u624Bbone_2/\u5DE6\u624B\u30DE\u30B0\u30DEbone_1"
    name: "\u5DE6\u624B\u30DE\u30B0\u30DEbone_1"
    color: {r: 1, g: 0, b: 0, a: 1}
    zOrder: 0
  - bindPose:
      e00: -0.0037361323
      e01: -0.9999932
      e02: 0
      e03: -0.25359932
      e10: 0.9999932
      e11: -0.0037361323
      e12: 0
      e13: -0.07753122
      e20: 0
      e21: 0
      e22: 1
      e23: 0
      e30: 0
      e31: 0
      e32: 0
      e33: 1
    boneLength: 0.42
    path: "\u8EAB\u4F53bone_2/\u8EAB\u4F53bone_3/\u8EAB\u4F53bone_4/\u5DE6\u624Bbone_1/\u5DE6\u624Bbone_2/\u5DE6\u624B\u30DE\u30B0\u30DEbone_1/\u5DE6\u624B\u30DE\u30B0\u30DEbone_2"
    name: "\u5DE6\u624B\u30DE\u30B0\u30DEbone_2"
    color: {r: 1, g: 0.75, b: 0, a: 1}
    zOrder: 0
  m_Blendshapes: []
