%YAML 1.1
%TAG !u! tag:unity3d.com,2011:
--- !u!114 &11400000
MonoBehaviour:
  m_ObjectHideFlags: 0
  m_PrefabParentObject: {fileID: 0}
  m_PrefabInternal: {fileID: 0}
  m_GameObject: {fileID: 0}
  m_Enabled: 1
  m_EditorHideFlags: 0
  m_Script: {fileID: 11500000, guid: c10c0be6d28fe4d539c4a39822fe301c, type: 3}
  m_Name: "\u30DE\u30C3\u30B7\u30E5\u30E1\u30EB\u30C4_2"
  m_EditorClassIdentifier: 
  m_ApiVersion: 3
  m_Sprite: {fileID: 21300004, guid: 1641febea335bfe4189f2ac6d52299c3, type: 3}
  m_SharedMesh: {fileID: 43638827794532036}
  m_SharedMaterials:
  - {fileID: 21181137736892546}
  pivotPoint: {x: 0, y: 0}
  texVertices: []
  edges: []
  holes: []
  indices: 
  bindPoses: []
--- !u!21 &21181137736892546
Material:
  serializedVersion: 6
  m_ObjectHideFlags: 1
  m_PrefabParentObject: {fileID: 0}
  m_PrefabInternal: {fileID: 0}
  m_Name: "\u30DE\u30C3\u30B7\u30E5\u30E1\u30EB\u30C4_2_0"
  m_Shader: {fileID: 10753, guid: 0000000000000000f000000000000000, type: 0}
  m_ShaderKeywords: 
  m_LightmapFlags: 4
  m_EnableInstancingVariants: 0
  m_DoubleSidedGI: 0
  m_CustomRenderQueue: -1
  stringTagMap: {}
  disabledShaderPasses: []
  m_SavedProperties:
    serializedVersion: 3
    m_TexEnvs:
    - _AlphaTex:
        m_Texture: {fileID: 0}
        m_Scale: {x: 1, y: 1}
        m_Offset: {x: 0, y: 0}
    - _MainTex:
        m_Texture: {fileID: 2800000, guid: 1641febea335bfe4189f2ac6d52299c3, type: 3}
        m_Scale: {x: 1, y: 1}
        m_Offset: {x: 0, y: 0}
    m_Floats:
    - PixelSnap: 0
    - _EnableExternalAlpha: 0
    m_Colors:
    - _Color: {r: 1, g: 1, b: 1, a: 1}
    - _Flip: {r: 1, g: 1, b: 1, a: 1}
    - _RendererColor: {r: 1, g: 1, b: 1, a: 1}
--- !u!43 &43638827794532036
Mesh:
  m_ObjectHideFlags: 1
  m_PrefabParentObject: {fileID: 0}
  m_PrefabInternal: {fileID: 0}
  m_Name: "\u30DE\u30C3\u30B7\u30E5\u30E1\u30EB\u30C4_2"
  serializedVersion: 8
  m_SubMeshes:
  - serializedVersion: 2
    firstByte: 0
    indexCount: 24
    topology: 0
    firstVertex: 0
    vertexCount: 10
    localAABB:
      m_Center: {x: 0.0021423325, y: 0, z: 0}
      m_Extent: {x: 0.17470825, y: 0.595, z: 0}
  m_Shapes:
    vertices: []
    shapes: []
    channels: []
    fullWeights: []
  m_BindPose:
  - e00: -0.004334141
    e01: -0.99999106
    e02: 0
    e03: 0.46504995
    e10: 0.99999106
    e11: -0.004334141
    e12: 0
    e13: 0.009756299
    e20: 0
    e21: 0
    e22: 1
    e23: 0
    e30: 0
    e31: 0
    e32: 0
    e33: 1
  - e00: -0.004334141
    e01: -0.99999106
    e02: 0
    e03: -0.034950286
    e10: 0.99999106
    e11: -0.004334141
    e12: 0
    e13: 0.009756299
    e20: 0
    e21: 0
    e22: 1
    e23: 0
    e30: 0
    e31: 0
    e32: 0
    e33: 1
  m_BoneNameHashes: 
  m_RootBoneNameHash: 0
  m_MeshCompression: 0
  m_IsReadable: 1
  m_KeepVertices: 1
  m_KeepIndices: 1
  m_IndexBuffer: 080004000600070006000900070009000500040001000300040008000200080006000700070005000000040002000100
  m_Skin:
  - weight[0]: 1
    weight[1]: 0
    weight[2]: 0
    weight[3]: 0
    boneIndex[0]: 0
    boneIndex[1]: 0
    boneIndex[2]: 0
    boneIndex[3]: 0
  - weight[0]: 1
    weight[1]: 0
    weight[2]: 0
    weight[3]: 0
    boneIndex[0]: 1
    boneIndex[1]: 0
    boneIndex[2]: 0
    boneIndex[3]: 0
  - weight[0]: 1
    weight[1]: 0
    weight[2]: 0
    weight[3]: 0
    boneIndex[0]: 1
    boneIndex[1]: 0
    boneIndex[2]: 0
    boneIndex[3]: 0
  - weight[0]: 1
    weight[1]: 0
    weight[2]: 0
    weight[3]: 0
    boneIndex[0]: 1
    boneIndex[1]: 0
    boneIndex[2]: 0
    boneIndex[3]: 0
  - weight[0]: 1
    weight[1]: 0
    weight[2]: 0
    weight[3]: 0
    boneIndex[0]: 1
    boneIndex[1]: 0
    boneIndex[2]: 0
    boneIndex[3]: 0
  - weight[0]: 1
    weight[1]: 0
    weight[2]: 0
    weight[3]: 0
    boneIndex[0]: 0
    boneIndex[1]: 0
    boneIndex[2]: 0
    boneIndex[3]: 0
  - weight[0]: 1
    weight[1]: 0
    weight[2]: 0
    weight[3]: 0
    boneIndex[0]: 1
    boneIndex[1]: 0
    boneIndex[2]: 0
    boneIndex[3]: 0
  - weight[0]: 1
    weight[1]: 0
    weight[2]: 0
    weight[3]: 0
    boneIndex[0]: 0
    boneIndex[1]: 0
    boneIndex[2]: 0
    boneIndex[3]: 0
  - weight[0]: 1
    weight[1]: 0
    weight[2]: 0
    weight[3]: 0
    boneIndex[0]: 1
    boneIndex[1]: 0
    boneIndex[2]: 0
    boneIndex[3]: 0
  - weight[0]: 1
    weight[1]: 0
    weight[2]: 0
    weight[3]: 0
    boneIndex[0]: 0
    boneIndex[1]: 0
    boneIndex[2]: 0
    boneIndex[3]: 0
  m_VertexData:
    m_CurrentChannels: 11
    m_VertexCount: 10
    m_Channels:
    - stream: 0
      offset: 0
      format: 0
      dimension: 3
    - stream: 0
      offset: 12
      format: 0
      dimension: 3
    - stream: 0
      offset: 0
      format: 0
      dimension: 0
    - stream: 1
      offset: 0
      format: 0
      dimension: 2
    - stream: 0
      offset: 0
      format: 0
      dimension: 0
    - stream: 0
      offset: 0
      format: 0
      dimension: 0
    - stream: 0
      offset: 0
      format: 0
      dimension: 0
    - stream: 0
      offset: 0
      format: 0
      dimension: 0
    m_DataSize: 320
    _typelessdata: c3f5283eec51183f000000000000000000000000000080bf7b14ae3dec5118bf000000000000000000000000000080bfc3f5283e1f850bbf000000000000000000000000000080bf5c8fc2bdec5118bf000000000000000000000000000080bf52b81ebe666606bf000000000000000000000000000080bfc3f528beec51183f000000000000000000000000000080bfd78b2fbe29cc8abd000000000000000000000000000080bf7bec273ed763b83d000000000000000000000000000080bf5218353e7bb483bd000000000000000000000000000080bf1fb530be852bc13d000000000000000000000000000080bf00e0263f00e01e3f00e0253f0000103f00e0263f00a0103f00a0233f0000103f00e0223f00e0103f00c0223f00e01e3f6bab223f2197163fc3dc263f1c90183fec05273f36a2163fcaa7223fd49d183f
  m_CompressedMesh:
    m_Vertices:
      m_NumItems: 0
      m_Range: 0
      m_Start: 0
      m_Data: 
      m_BitSize: 0
    m_UV:
      m_NumItems: 0
      m_Range: 0
      m_Start: 0
      m_Data: 
      m_BitSize: 0
    m_Normals:
      m_NumItems: 0
      m_Range: 0
      m_Start: 0
      m_Data: 
      m_BitSize: 0
    m_Tangents:
      m_NumItems: 0
      m_Range: 0
      m_Start: 0
      m_Data: 
      m_BitSize: 0
    m_Weights:
      m_NumItems: 0
      m_Data: 
      m_BitSize: 0
    m_NormalSigns:
      m_NumItems: 0
      m_Data: 
      m_BitSize: 0
    m_TangentSigns:
      m_NumItems: 0
      m_Data: 
      m_BitSize: 0
    m_FloatColors:
      m_NumItems: 0
      m_Range: 0
      m_Start: 0
      m_Data: 
      m_BitSize: 0
    m_BoneIndices:
      m_NumItems: 0
      m_Data: 
      m_BitSize: 0
    m_Triangles:
      m_NumItems: 0
      m_Data: 
      m_BitSize: 0
    m_UVInfo: 0
  m_LocalAABB:
    m_Center: {x: 0.0021423325, y: 0, z: 0}
    m_Extent: {x: 0.17470825, y: 0.595, z: 0}
  m_MeshUsageFlags: 0
  m_BakedConvexCollisionMesh: 
  m_BakedTriangleCollisionMesh: 
  m_MeshOptimized: 0
--- !u!114 &114843492575666942
MonoBehaviour:
  m_ObjectHideFlags: 1
  m_PrefabParentObject: {fileID: 0}
  m_PrefabInternal: {fileID: 0}
  m_GameObject: {fileID: 0}
  m_Enabled: 1
  m_EditorHideFlags: 0
  m_Script: {fileID: 11500000, guid: 9e715ea371f114f4a8d2584ad476634d, type: 3}
  m_Name: "\u30DE\u30C3\u30B7\u30E5\u30E1\u30EB\u30C4_2_Data"
  m_EditorClassIdentifier: 
  m_PivotPoint: {x: 1318.5, y: 1211.5}
  m_Vertices:
  - {x: 1335, y: 1271}
  - {x: 1327, y: 1152}
  - {x: 1335, y: 1157}
  - {x: 1309, y: 1152}
  - {x: 1303, y: 1159}
  - {x: 1302, y: 1271}
  - {x: 1301.3568, y: 1204.7228}
  - {x: 1334.8988, y: 1220.5034}
  - {x: 1336.185, y: 1205.0691}
  - {x: 1301.2434, y: 1220.9321}
  m_BoneWeights:
  - weight0: 1
    weight1: 0
    weight2: 0
    weight3: 0
    boneIndex0: 0
    boneIndex1: -1
    boneIndex2: -1
    boneIndex3: -1
  - weight0: 1
    weight1: 0
    weight2: 0
    weight3: 0
    boneIndex0: 1
    boneIndex1: -1
    boneIndex2: -1
    boneIndex3: -1
  - weight0: 1
    weight1: 0
    weight2: 0
    weight3: 0
    boneIndex0: 1
    boneIndex1: -1
    boneIndex2: -1
    boneIndex3: -1
  - weight0: 1
    weight1: 0
    weight2: 0
    weight3: 0
    boneIndex0: 1
    boneIndex1: -1
    boneIndex2: -1
    boneIndex3: -1
  - weight0: 1
    weight1: 0
    weight2: 0
    weight3: 0
    boneIndex0: 1
    boneIndex1: -1
    boneIndex2: -1
    boneIndex3: -1
  - weight0: 1
    weight1: 0
    weight2: 0
    weight3: 0
    boneIndex0: 0
    boneIndex1: -1
    boneIndex2: -1
    boneIndex3: -1
  - weight0: 1
    weight1: 0
    weight2: 0
    weight3: 0
    boneIndex0: 1
    boneIndex1: -1
    boneIndex2: -1
    boneIndex3: -1
  - weight0: 1
    weight1: 0
    weight2: 0
    weight3: 0
    boneIndex0: 0
    boneIndex1: -1
    boneIndex2: -1
    boneIndex3: -1
  - weight0: 1
    weight1: 0
    weight2: 0
    weight3: 0
    boneIndex0: 1
    boneIndex1: -1
    boneIndex2: -1
    boneIndex3: -1
  - weight0: 1
    weight1: 0
    weight2: 0
    weight3: 0
    boneIndex0: 0
    boneIndex1: -1
    boneIndex2: -1
    boneIndex3: -1
  m_Edges:
  - index1: 0
    index2: 5
  - index1: 6
    index2: 4
  - index1: 3
    index2: 4
  - index1: 1
    index2: 3
  - index1: 2
    index2: 1
  - index1: 0
    index2: 7
  - index1: 2
    index2: 8
  - index1: 7
    index2: 8
  - index1: 6
    index2: 9
  - index1: 5
    index2: 9
  m_Holes: []
  m_Indices: 080000000400000006000000070000000600000009000000070000000900000005000000040000000100000003000000040000000800000002000000080000000600000007000000070000000500000000000000040000000200000001000000
  m_BindPoses:
  - bindPose:
      e00: -0.004334141
      e01: -0.99999106
      e02: 0
      e03: 0.46504995
      e10: 0.99999106
      e11: -0.004334141
      e12: 0
      e13: 0.009756299
      e20: 0
      e21: 0
      e22: 1
      e23: 0
      e30: 0
      e31: 0
      e32: 0
      e33: 1
    boneLength: 0.50000024
    path: "\u8EAB\u4F53bone_2/\u8EAB\u4F53bone_3/\u8EAB\u4F53bone_4/\u53F3\u624Bbone_1/\u53F3\u624Bbone_2/\u53F3\u624B\u30DE\u30B0\u30DEbone/\u53F3\u624B\u30DE\u30B0\u30DE\u4E0Bbone_1"
    name: "\u53F3\u624B\u30DE\u30B0\u30DE\u4E0Bbone_1"
    color: {r: 1, g: 0, b: 0, a: 1}
    zOrder: 0
  - bindPose:
      e00: -0.004334141
      e01: -0.99999106
      e02: 0
      e03: -0.034950286
      e10: 0.99999106
      e11: -0.004334141
      e12: 0
      e13: 0.009756299
      e20: 0
      e21: 0
      e22: 1
      e23: 0
      e30: 0
      e31: 0
      e32: 0
      e33: 1
    boneLength: 0.52
    path: "\u8EAB\u4F53bone_2/\u8EAB\u4F53bone_3/\u8EAB\u4F53bone_4/\u53F3\u624Bbone_1/\u53F3\u624Bbone_2/\u53F3\u624B\u30DE\u30B0\u30DEbone/\u53F3\u624B\u30DE\u30B0\u30DE\u4E0Bbone_1/\u53F3\u624B\u30DE\u30B0\u30DE\u4E0Bbone_2"
    name: "\u53F3\u624B\u30DE\u30B0\u30DE\u4E0Bbone_2"
    color: {r: 1, g: 0.75, b: 0, a: 1}
    zOrder: 0
  m_Blendshapes: []
